<?xml version="1.0" encoding="utf-8"?>
<!-- Generator: Adobe Illustrator 16.0.0, SVG Export Plug-In . SVG Version: 6.00 Build 0)  -->
<!DOCTYPE svg PUBLIC "-//W3C//DTD SVG 1.1//EN" "http://www.w3.org/Graphics/SVG/1.1/DTD/svg11.dtd">
<svg version="1.1" id="Layer_1" xmlns="http://www.w3.org/2000/svg" xmlns:xlink="http://www.w3.org/1999/xlink" x="0px" y="0px"
	 width="173.703px" height="151.92px" viewBox="0 0 173.703 151.92" enable-background="new 0 0 173.703 151.92"
	 xml:space="preserve">
<g>
	<defs>
		<rect id="SVGID_1_" width="173.703" height="151.92"/>
	</defs>
	<clipPath id="SVGID_2_">
		<use xlink:href="#SVGID_1_"  overflow="visible"/>
	</clipPath>
	<path clip-path="url(#SVGID_2_)" fill="#3CC6B5" d="M154.8,77.252c-0.694-2.334-1.634-4.562-2.797-6.651h4.203
		c-2.611-4.688-6.336-8.664-10.804-11.602c8.776-5.762,14.652-15.58,14.963-26.791h-2.801C157.069,14.336,142.438,0,124.447,0
		S91.824,14.336,91.33,32.208h2.8C94.44,43.418,100.316,53.236,109.094,59c-4.468,2.937-8.193,6.913-10.804,11.601h-4.203
		c-1.163,2.089-2.104,4.317-2.797,6.651h4.202c-0.805,2.712-1.28,5.565-1.362,8.519h11.227c0.128-3.043,0.886-5.918,2.128-8.519
		h-4.204c1.206-2.522,2.877-4.773,4.904-6.651h4.204c3.904-3.614,9.115-5.835,14.859-5.835c5.743,0,10.954,2.221,14.859,5.835
		h-4.204c2.028,1.878,3.699,4.129,4.904,6.651h4.204c1.241,2.601,1.999,5.476,2.128,8.519h11.226
		c-0.082-2.953-0.557-5.807-1.362-8.519H154.8z M102.556,32.208c0.493-11.68,10.09-21.005,21.892-21.005s21.398,9.325,21.892,21.005
		h2.801c-0.493,11.68-10.091,21.005-21.892,21.005c-11.802,0-21.399-9.325-21.892-21.005H102.556z"/>
	<path clip-path="url(#SVGID_2_)" fill="#3CC6B5" d="M76.847,77.252c-0.694-2.334-1.634-4.562-2.797-6.651h4.203
		c-2.611-4.688-6.335-8.664-10.803-11.602c8.776-5.762,14.652-15.58,14.963-26.791h-2.801C79.117,14.336,64.485,0,46.496,0
		C28.504,0,13.874,14.336,13.377,32.208h2.801C16.488,43.418,22.364,53.236,31.142,59c-4.468,2.937-8.193,6.913-10.804,11.601
		h-4.203c-1.163,2.089-2.104,4.317-2.797,6.651h4.203c-0.805,2.712-1.281,5.565-1.362,8.519h11.226
		c0.128-3.043,0.886-5.918,2.128-8.519h-4.204c1.206-2.522,2.877-4.773,4.904-6.651h4.204c3.904-3.614,9.115-5.835,14.859-5.835
		s10.956,2.221,14.86,5.835h-4.204c2.028,1.878,3.699,4.129,4.904,6.651h4.204c1.242,2.601,1.999,5.476,2.128,8.519h11.226
		c-0.082-2.953-0.557-5.807-1.363-8.519H76.847z M24.604,32.208c0.493-11.68,10.091-21.005,21.892-21.005
		c11.801,0,21.398,9.325,21.891,21.005h2.801c-0.493,11.68-10.091,21.005-21.892,21.005s-21.399-9.325-21.891-21.005H24.604z"/>
	<path clip-path="url(#SVGID_2_)" fill="#484544" d="M13.465,122.333c-0.017,3.222-2.358,5.898-5.561,6.323
		c-2.426,0.321-4.538-0.36-6.272-2.11c-1.065-1.075-1.597-2.401-1.61-3.9c-0.027-3.147-0.033-6.121,0.002-9.27
		c0.02-1.903,0.862-3.43,2.36-4.603c2.223-1.739,5.862-2.149,8.42-0.253c1.686,1.249,2.616,2.918,2.656,5.031
		c0.03,1.522,0.006,2.959,0.006,4.482C13.467,119.496,13.474,120.871,13.465,122.333 M3.223,122.105c0,0.021,0.001,0.04,0,0.061
		c-0.094,1.724,1.031,2.775,2.392,3.188c2.606,0.791,4.802-0.979,4.658-3.448c-0.088-1.499-0.016-2.919-0.017-4.423
		c0-1.28-0.001-2.474-0.003-3.754c-0.001-0.947-0.361-1.736-1.053-2.379c-0.824-0.767-1.813-0.932-2.89-0.831
		c-1.872,0.173-3.081,1.471-3.086,3.347c-0.004,1.423-0.001,2.758-0.001,4.181V122.105z"/>
	<path clip-path="url(#SVGID_2_)" fill="#484544" d="M16.89,109.085c0-0.184-0.007-0.366,0.003-0.549
		c0.032-0.578,0.37-0.946,0.951-0.986c0.425-0.03,0.855-0.03,1.279-0.003c0.58,0.038,0.918,0.396,0.968,0.98
		c0.016,0.182,0.009,0.365,0.009,0.548c0,5.953-0.008,11.905,0.008,17.857c0.003,0.982-0.147,1.637-1.531,1.526
		c-0.242-0.02-0.487,0.006-0.73-0.007c-0.602-0.031-0.919-0.354-0.953-0.962c-0.011-0.183-0.004-0.365-0.004-0.549
		c-0.001-2.986-0.001-5.973-0.001-8.96C16.889,115.017,16.889,112.051,16.89,109.085"/>
	<path clip-path="url(#SVGID_2_)" fill="#484544" d="M27.807,111.779c0-0.262,0.027-0.531-0.152-0.761
		c-0.22-0.281-0.514-0.372-0.86-0.369c-0.711,0.006-1.422,0.007-2.133-0.002c-0.74-0.009-1.083-0.337-1.115-1.069
		c-0.015-0.364-0.02-0.732,0.007-1.097c0.045-0.62,0.401-0.962,1.029-0.964c3.231-0.007,6.462-0.008,9.693,0.001
		c0.648,0.001,0.979,0.335,1.006,0.969c0.017,0.405,0.018,0.813-0.001,1.219c-0.03,0.598-0.364,0.924-0.973,0.938
		c-0.711,0.017-1.422,0.002-2.133,0.007c-0.878,0.006-1.154,0.283-1.154,1.177c-0.002,5.039-0.023,10.079,0.014,15.118
		c0.008,1.239-0.49,1.562-1.516,1.49c-0.223-0.016-0.448,0.006-0.671-0.008c-0.645-0.039-0.992-0.391-1.033-1.045
		c-0.012-0.182-0.006-0.365-0.006-0.548v-7.376C27.809,116.899,27.81,114.339,27.807,111.779"/>
	<path clip-path="url(#SVGID_2_)" fill="#484544" d="M38.676,109.101c0-0.203-0.009-0.408,0.013-0.609
		c0.058-0.548,0.396-0.877,0.951-0.934c0.14-0.015,0.284-0.009,0.427-0.009c2.985-0.001,5.971-0.001,8.958,0
		c0.162,0,0.326-0.007,0.487,0.014c0.543,0.067,0.881,0.42,0.904,0.969c0.018,0.426,0.019,0.854-0.002,1.279
		c-0.024,0.514-0.36,0.869-0.869,0.938c-0.2,0.026-0.405,0.017-0.608,0.017c-1.971,0.001-3.942-0.001-5.911,0.002
		c-0.872,0.001-1.133,0.256-1.138,1.116c-0.007,1.158-0.007,2.315,0.001,3.474c0.005,0.767,0.305,1.065,1.072,1.071
		c1.036,0.008,2.072,0,3.109,0.003c0.959,0.003,1.26,0.309,1.272,1.284c0.004,0.285,0.009,0.569-0.003,0.854
		c-0.031,0.72-0.386,1.082-1.107,1.096c-0.975,0.015-1.951,0.003-2.925,0.004c-0.183,0-0.366-0.005-0.549,0.005
		c-0.522,0.029-0.828,0.31-0.861,0.831c-0.027,0.426-0.01,0.854-0.011,1.279c-0.001,0.813-0.005,1.626,0.002,2.438
		c0.006,0.811,0.295,1.107,1.097,1.108c2.01,0.006,4.022,0.002,6.033,0.003c0.182,0,0.367-0.009,0.548,0.009
		c0.471,0.048,0.804,0.348,0.839,0.816c0.034,0.484,0.033,0.976,0.002,1.461c-0.032,0.499-0.37,0.8-0.876,0.844
		c-0.121,0.011-0.243,0.006-0.365,0.006c-3.067,0.001-6.135,0.002-9.202,0c-0.968-0.001-1.284-0.306-1.286-1.269
		c-0.006-3.067-0.002-6.135-0.002-9.202C38.675,115.032,38.675,112.066,38.676,109.101"/>
	<path clip-path="url(#SVGID_2_)" fill="#484544" d="M67.187,126.85c0,0.163,0.004,0.325-0.001,0.488
		c-0.02,0.717-0.369,1.067-1.099,1.093c-0.344,0.012-0.691-0.011-1.035,0.006c-0.592,0.03-1.008-0.257-1.333-0.711
		c-0.106-0.146-0.184-0.315-0.267-0.478c-1.871-3.651-3.742-7.304-5.614-10.955c-0.091-0.18-0.176-0.371-0.303-0.525
		c-0.169-0.206-0.427-0.151-0.534,0.096c-0.09,0.212-0.056,0.44-0.056,0.663c-0.002,3.453-0.002,6.906-0.002,10.36
		c0,0.183,0.007,0.366-0.004,0.548c-0.029,0.555-0.352,0.937-0.889,0.98c-0.465,0.039-0.935,0.036-1.4,0.001
		c-0.515-0.038-0.843-0.394-0.902-0.911c-0.021-0.181-0.015-0.365-0.015-0.548v-17.979c0-0.163-0.005-0.326,0.01-0.487
		c0.054-0.625,0.397-0.954,1.023-0.975c0.406-0.013,0.814,0.019,1.219-0.009c0.524-0.035,0.899,0.203,1.199,0.592
		c0.135,0.176,0.245,0.374,0.346,0.571c1.844,3.597,3.685,7.195,5.528,10.793c0.102,0.199,0.205,0.397,0.321,0.588
		c0.081,0.133,0.211,0.188,0.369,0.142c0.133-0.039,0.194-0.146,0.205-0.272c0.015-0.202,0.023-0.405,0.023-0.608
		c0.001-3.434,0.015-6.866-0.008-10.3c-0.007-0.962,0.179-1.608,1.495-1.503c0.263,0.021,0.529-0.007,0.792,0.009
		c0.568,0.034,0.886,0.355,0.926,0.926c0.014,0.183,0.006,0.366,0.006,0.549v8.959V126.85z"/>
	<path clip-path="url(#SVGID_2_)" fill="#484544" d="M74.762,111.779c0-0.262,0.027-0.531-0.152-0.761
		c-0.22-0.281-0.514-0.372-0.86-0.369c-0.711,0.006-1.422,0.007-2.133-0.002c-0.74-0.009-1.083-0.337-1.115-1.069
		c-0.015-0.364-0.02-0.732,0.007-1.097c0.045-0.62,0.401-0.962,1.029-0.964c3.231-0.007,6.462-0.008,9.693,0.001
		c0.648,0.001,0.979,0.335,1.006,0.969c0.017,0.405,0.018,0.813-0.001,1.219c-0.03,0.598-0.364,0.924-0.973,0.938
		c-0.711,0.017-1.422,0.002-2.133,0.007c-0.878,0.006-1.154,0.283-1.154,1.177c-0.002,5.039-0.023,10.079,0.014,15.118
		c0.008,1.239-0.49,1.562-1.516,1.49c-0.223-0.016-0.448,0.006-0.671-0.008c-0.645-0.039-0.992-0.391-1.033-1.045
		c-0.012-0.182-0.006-0.365-0.006-0.548v-7.376C74.764,116.899,74.766,114.339,74.762,111.779"/>
	<path clip-path="url(#SVGID_2_)" fill="#484544" d="M88.079,124.174c-0.687,0.008-1.044,0.282-1.219,0.954
		c-0.196,0.747-0.363,1.501-0.553,2.249c-0.194,0.759-0.572,1.056-1.334,1.062c-0.427,0.004-0.854,0.013-1.28-0.004
		c-0.649-0.025-0.954-0.426-0.784-1.059c0.672-2.512,1.355-5.021,2.041-7.529c0.994-3.645,1.994-7.289,2.992-10.933
		c0.048-0.177,0.085-0.358,0.151-0.527c0.215-0.54,0.594-0.863,1.197-0.866c0.549-0.002,1.099-0.007,1.647-0.001
		c0.808,0.01,1.22,0.329,1.441,1.126c0.333,1.193,0.658,2.39,0.984,3.585c1.313,4.82,2.629,9.643,3.942,14.465
		c0.074,0.274,0.161,0.547,0.214,0.825c0.084,0.465-0.198,0.872-0.669,0.9c-0.587,0.036-1.182,0.047-1.767-0.002
		c-0.515-0.044-0.831-0.397-0.959-0.894c-0.181-0.709-0.348-1.421-0.522-2.131c-0.039-0.157-0.069-0.319-0.131-0.469
		c-0.194-0.473-0.525-0.759-1.065-0.755c-0.752,0.005-1.504,0.001-2.256,0.001C89.46,124.173,88.77,124.167,88.079,124.174
		 M90.185,121.031c0.467,0,0.935,0.018,1.399-0.005c0.537-0.024,0.802-0.366,0.727-0.895c-0.016-0.101-0.047-0.197-0.071-0.296
		c-0.545-2.228-1.091-4.455-1.638-6.683c-0.028-0.118-0.06-0.24-0.114-0.346c-0.139-0.262-0.421-0.268-0.571-0.008
		c-0.068,0.12-0.099,0.265-0.133,0.401c-0.089,0.354-0.167,0.711-0.255,1.065c-0.453,1.833-0.911,3.664-1.36,5.498
		c-0.243,0.995-0.027,1.267,0.981,1.271c0.345,0.001,0.688,0,1.035,0V121.031z"/>
	<path clip-path="url(#SVGID_2_)" fill="#484544" d="M105.591,109.101c0-0.203-0.009-0.408,0.013-0.609
		c0.059-0.548,0.396-0.877,0.951-0.934c0.141-0.015,0.284-0.009,0.427-0.009c2.985-0.001,5.972-0.001,8.958,0
		c0.162,0,0.326-0.007,0.487,0.014c0.543,0.067,0.881,0.42,0.904,0.969c0.018,0.426,0.019,0.854-0.002,1.279
		c-0.024,0.514-0.36,0.869-0.869,0.938c-0.2,0.026-0.405,0.017-0.608,0.017c-1.971,0.001-3.941-0.001-5.911,0.002
		c-0.871,0.001-1.133,0.256-1.138,1.116c-0.007,1.158-0.007,2.315,0.001,3.474c0.005,0.767,0.306,1.065,1.072,1.071
		c1.036,0.008,2.072,0,3.109,0.003c0.959,0.003,1.26,0.309,1.271,1.284c0.004,0.285,0.009,0.569-0.003,0.854
		c-0.031,0.72-0.387,1.082-1.107,1.096c-0.975,0.015-1.95,0.003-2.925,0.004c-0.183,0-0.366-0.005-0.548,0.005
		c-0.522,0.029-0.829,0.31-0.862,0.831c-0.026,0.426-0.01,0.854-0.011,1.279c-0.001,0.813-0.005,1.626,0.002,2.438
		c0.006,0.811,0.295,1.107,1.097,1.108c2.011,0.006,4.022,0.002,6.033,0.003c0.183,0,0.367-0.009,0.548,0.009
		c0.472,0.048,0.805,0.348,0.84,0.816c0.033,0.484,0.032,0.976,0.002,1.461c-0.032,0.499-0.37,0.8-0.876,0.844
		c-0.121,0.011-0.243,0.006-0.365,0.006c-3.067,0.001-6.135,0.002-9.202,0c-0.968-0.001-1.284-0.306-1.286-1.269
		c-0.006-3.067-0.002-6.135-0.002-9.202C105.59,115.032,105.59,112.066,105.591,109.101"/>
	<path clip-path="url(#SVGID_2_)" fill="#484544" d="M137.707,122.333c-0.018,3.222-2.358,5.898-5.562,6.323
		c-2.426,0.321-4.538-0.36-6.271-2.11c-1.065-1.075-1.598-2.401-1.61-3.9c-0.027-3.147-0.033-6.121,0.002-9.27
		c0.021-1.903,0.862-3.43,2.36-4.603c2.223-1.739,5.861-2.149,8.42-0.253c1.686,1.249,2.616,2.918,2.656,5.031
		c0.029,1.522,0.006,2.959,0.006,4.482C137.709,119.496,137.716,120.871,137.707,122.333 M127.465,122.105
		c0,0.021,0.001,0.04,0,0.061c-0.094,1.724,1.031,2.775,2.392,3.188c2.606,0.791,4.802-0.979,4.658-3.448
		c-0.088-1.499-0.016-2.919-0.017-4.423c0-1.28-0.001-2.474-0.003-3.754c-0.001-0.947-0.361-1.736-1.054-2.379
		c-0.823-0.767-1.812-0.932-2.89-0.831c-1.872,0.173-3.081,1.471-3.086,3.347c-0.004,1.423-0.001,2.758-0.001,4.181V122.105z"/>
	<path clip-path="url(#SVGID_2_)" fill="#484544" d="M141.123,109.099c0-0.185-0.007-0.366,0.002-0.55
		c0.032-0.577,0.37-0.945,0.951-0.986c0.425-0.031,0.854-0.031,1.279-0.004c0.579,0.038,0.918,0.395,0.969,0.979
		c0.016,0.181,0.009,0.365,0.009,0.548c0.006,5.953,0.002,11.905,0.022,17.857c0.004,0.981-0.146,1.637-1.529,1.528
		c-0.242-0.02-0.486,0.006-0.729-0.008c-0.603-0.029-0.919-0.352-0.954-0.961c-0.011-0.182-0.004-0.364-0.004-0.549
		c-0.004-2.986-0.006-5.972-0.01-8.959C141.127,115.03,141.124,112.064,141.123,109.099"/>
	<path clip-path="url(#SVGID_2_)" fill="#484544" d="M151.042,111.784c0-0.262,0.027-0.53-0.153-0.761
		c-0.22-0.281-0.514-0.371-0.859-0.368c-0.711,0.006-1.422,0.008-2.132,0c-0.741-0.008-1.084-0.336-1.117-1.068
		c-0.016-0.364-0.021-0.732,0.006-1.097c0.045-0.621,0.4-0.963,1.029-0.965c3.229-0.01,6.462-0.013,9.691-0.007
		c0.649,0,0.98,0.334,1.007,0.968c0.019,0.405,0.02,0.812,0,1.219c-0.028,0.598-0.362,0.925-0.972,0.939
		c-0.711,0.017-1.422,0.003-2.133,0.008c-0.878,0.007-1.154,0.285-1.153,1.178c0.002,5.039-0.014,10.079,0.026,15.118
		c0.01,1.24-0.488,1.562-1.515,1.492c-0.223-0.016-0.448,0.006-0.671-0.007c-0.646-0.039-0.993-0.39-1.033-1.045
		c-0.013-0.181-0.008-0.365-0.008-0.547c-0.002-2.459-0.004-4.918-0.006-7.376C151.048,116.904,151.047,114.345,151.042,111.784"/>
	<path clip-path="url(#SVGID_2_)" fill="#484544" d="M173.698,122.319c-0.016,3.223-2.354,5.901-5.556,6.328
		c-2.427,0.323-4.538-0.357-6.273-2.104c-1.067-1.075-1.6-2.4-1.614-3.899c-0.028-3.148-0.038-6.121-0.005-9.269
		c0.02-1.904,0.859-3.432,2.356-4.605c2.221-1.741,5.86-2.155,8.42-0.26c1.687,1.247,2.619,2.916,2.66,5.028
		c0.03,1.522,0.009,2.959,0.01,4.482C173.698,119.482,173.706,120.857,173.698,122.319 M163.456,122.101c0,0.021,0.001,0.04,0,0.061
		c-0.092,1.724,1.034,2.774,2.394,3.187c2.607,0.789,4.803-0.981,4.656-3.452c-0.089-1.499-0.018-2.919-0.021-4.423
		c-0.001-1.28-0.003-2.473-0.006-3.754c-0.001-0.947-0.362-1.736-1.056-2.378c-0.824-0.766-1.812-0.93-2.891-0.828
		c-1.871,0.174-3.079,1.473-3.083,3.349c-0.002,1.423,0.002,2.758,0.003,4.181L163.456,122.101z"/>
	<path clip-path="url(#SVGID_2_)" fill="#484544" d="M25.686,138.955c0.708,0,1.198,0.454,1.198,1.089
		c0,0.545-0.326,0.908-0.799,0.908c-0.399,0-0.653-0.218-0.653-0.562c0-0.109,0.019-0.182,0.091-0.309
		c0.055-0.073,0.072-0.146,0.072-0.182c0-0.109-0.144-0.218-0.29-0.218c-0.218,0-0.563,0.326-0.762,0.726
		c0.236,0.563,0.327,0.944,0.327,1.417c0,1.87-1.49,3.159-3.668,3.159c-0.927,0-1.617-0.182-2.252-0.636
		c-0.527,0.272-0.89,0.69-0.89,0.999c0,0.236,0.273,0.436,0.69,0.489c0.418,0.056,0.418,0.056,2.215,0.109
		c1.634,0.055,2.343,0.2,2.87,0.581c0.544,0.399,0.816,0.927,0.816,1.58c0,0.926-0.563,1.943-1.488,2.669
		c-0.945,0.745-2.071,1.09-3.487,1.09c-1.307,0-2.324-0.236-3.014-0.69c-0.636-0.436-0.962-0.98-0.962-1.562
		c0-0.89,0.471-1.38,1.834-1.906c-0.782-0.345-1.109-0.727-1.109-1.308c0-0.926,0.672-1.725,2.035-2.469
		c-0.418-0.6-0.527-0.891-0.527-1.435c0-1.853,1.87-3.45,4.031-3.45c0.944,0,1.58,0.254,2.124,0.854
		C24.633,139.245,25.124,138.955,25.686,138.955 M17.498,149.396c0,1.071,0.943,1.798,2.341,1.798c0.945,0,1.762-0.236,2.325-0.672
		c0.545-0.436,0.944-1.09,0.944-1.58c0-0.235-0.146-0.453-0.363-0.562c-0.273-0.127-0.636-0.182-1.543-0.218
		c-1.236-0.055-2.198-0.127-3.07-0.254C17.733,148.288,17.498,148.814,17.498,149.396 M20.856,141.024
		c-0.326,0.872-0.544,1.853-0.544,2.47c0,0.526,0.272,0.872,0.69,0.872c0.454,0,0.817-0.399,1.125-1.198
		c0.309-0.817,0.509-1.834,0.509-2.615c0-0.6-0.181-0.871-0.599-0.871C21.546,139.682,21.219,140.062,20.856,141.024"/>
	<path clip-path="url(#SVGID_2_)" fill="#484544" d="M28.934,145.364c0,0.836,0.345,1.253,1.035,1.253
		c0.943,0,2.052-0.672,2.741-1.688c0.091-0.127,0.164-0.182,0.218-0.182c0.146,0,0.382,0.2,0.382,0.309
		c0,0.236-0.6,0.944-1.198,1.417c-0.763,0.599-1.635,0.89-2.706,0.89c-1.871,0-3.051-1.054-3.051-2.706
		c0-1.416,0.672-2.814,1.888-3.903c1.217-1.126,2.561-1.707,3.905-1.707c1.38,0,2.269,0.653,2.269,1.67
		c0,0.781-0.599,1.508-1.616,1.979c-0.689,0.309-1.471,0.454-2.578,0.454c-0.273,0-0.418,0-0.708-0.036
		C29.115,144.021,28.934,144.692,28.934,145.364 M30.095,142.478c0.726,0,1.325-0.236,1.797-0.708
		c0.436-0.418,0.726-1.017,0.726-1.453c0-0.345-0.217-0.599-0.526-0.599c-0.672,0-1.507,0.962-2.324,2.741
		C29.914,142.478,30.022,142.478,30.095,142.478"/>
	<path clip-path="url(#SVGID_2_)" fill="#484544" d="M36.304,144.893c0,0.363-0.254,0.636-0.581,0.636c-0.091,0-0.127,0-0.218-0.036
		c-0.017-0.019-0.036-0.019-0.054-0.019c-0.054,0-0.09,0.055-0.09,0.146c0,0.581,0.689,1.089,1.452,1.089
		c0.781,0,1.489-0.617,1.489-1.289c0-0.507-0.2-0.871-1.054-1.889c-0.653-0.78-0.925-1.397-0.925-2.033
		c0-1.435,1.489-2.434,3.613-2.434c1.307,0,2.142,0.545,2.142,1.417c0,0.6-0.363,0.998-0.925,0.998
		c-0.418,0-0.708-0.254-0.708-0.617c0-0.218,0.145-0.399,0.363-0.472c0.072-0.018,0.091-0.055,0.091-0.109
		c0-0.29-0.418-0.545-0.89-0.545c-0.69,0-1.253,0.473-1.253,1.071c0,0.382,0.145,0.654,0.653,1.162
		c1.017,1.054,1.38,1.707,1.38,2.506c0,1.707-1.561,2.905-3.795,2.905c-1.597,0-2.814-0.89-2.814-2.033
		c0-0.745,0.526-1.308,1.253-1.308C35.923,144.039,36.304,144.402,36.304,144.893"/>
	<path clip-path="url(#SVGID_2_)" fill="#484544" d="M45.215,138.864l0.127-0.345l0.073-0.164l0.091-0.254
		c0.072-0.2,0.091-0.254,0.145-0.272l0.164-0.036h0.272c0.816-0.036,1.162-0.074,1.652-0.218c0.145-0.055,0.29-0.073,0.363-0.073
		c0.091,0,0.128,0.036,0.128,0.127c0,0.09-0.019,0.182-0.074,0.291c-0.108,0.29-0.199,0.545-0.29,0.763
		c-0.109,0.272-0.145,0.399-0.291,0.743h0.237l0.236,0.02c0.145,0.018,0.218,0.018,0.399,0.018l0.872-0.018h0.073
		c0.091,0,0.144,0.036,0.144,0.107c0,0.22-0.127,0.455-0.272,0.491c-0.091,0.019-0.091,0.019-1.325,0.019
		c-0.328,0-0.4,0-0.581,0.036c-0.091,0.2-0.69,1.688-0.981,2.415c-0.926,2.343-1.143,2.979-1.143,3.269
		c0,0.254,0.199,0.436,0.49,0.436c0.326,0,0.689-0.163,1.089-0.508c0.327-0.272,0.345-0.309,0.872-1.018
		c0.054-0.054,0.108-0.108,0.145-0.108c0.127,0,0.381,0.199,0.381,0.309c0,0.29-0.672,1.071-1.325,1.525
		c-0.781,0.562-1.599,0.854-2.434,0.854c-1.179,0-1.87-0.545-1.87-1.471c0-0.545,0.454-1.762,1.653-4.376
		c0.236-0.545,0.272-0.636,0.508-1.344c-0.236-0.019-0.49-0.037-0.672-0.037h-0.272c-0.291,0-0.363-0.018-0.363-0.108
		c0-0.109,0.091-0.399,0.145-0.454c0.036-0.036,0.109-0.056,0.182-0.056c0.054,0,0.144,0,0.254,0.02h0.363l0.273,0.018h0.09
		c0.073,0,0.127,0,0.254-0.018L45.215,138.864z"/>
	<path clip-path="url(#SVGID_2_)" fill="#484544" d="M58.052,141.969c-0.182,0.509-0.382,0.98-0.6,1.471
		c-0.744,1.78-0.835,2.034-0.835,2.397c0,0.199,0.164,0.363,0.364,0.363c0.454,0,1.035-0.49,1.652-1.38
		c0.055-0.073,0.108-0.128,0.146-0.128c0.09,0,0.417,0.31,0.417,0.4c0,0.218-0.854,1.107-1.398,1.471
		c-0.781,0.526-1.599,0.799-2.361,0.799c-0.89,0-1.344-0.399-1.344-1.217c0-0.146,0-0.218,0.037-0.436
		c-0.927,1.09-1.834,1.616-2.814,1.616c-1.508,0-2.415-0.944-2.415-2.506c0-2.706,3.104-5.757,5.864-5.757
		c0.672,0,1.054,0.182,1.58,0.763l0.091-0.145l0.055-0.146c0.163-0.345,0.217-0.399,0.399-0.399c0.055,0,0.055,0,0.689,0.018h0.309
		l0.836-0.036c0.091-0.018,0.163-0.018,0.218-0.018c0.127,0,0.181,0.054,0.181,0.145c0,0.127-0.036,0.255-0.09,0.399
		c-0.201,0.454-0.4,0.908-0.6,1.38L58.052,141.969z M55.021,139.754c-0.727,0-1.435,0.708-2.234,2.215
		c-0.671,1.29-1.162,2.724-1.162,3.45c0,0.49,0.218,0.817,0.527,0.817c1.179,0,2.759-2.396,3.685-5.574
		C55.746,139.99,55.528,139.754,55.021,139.754 M56.345,135.904c0.926,0.526,1.198,0.653,1.435,0.653
		c0.272,0,0.508-0.235,0.653-0.635c0.145-0.363,0.145-0.382,0.272-0.382c0.237,0,0.345,0.036,0.345,0.146
		c0,0.418-0.309,1.126-0.653,1.489c-0.364,0.381-0.871,0.599-1.435,0.599c-0.545,0-0.889-0.146-1.87-0.744
		c-0.78-0.49-1.162-0.654-1.452-0.654c-0.4,0-0.709,0.4-0.691,0.908c0,0.254-0.054,0.309-0.327,0.309
		c-0.235,0-0.308-0.055-0.308-0.235c0-1.162,0.98-2.034,2.306-2.034C55.165,135.323,55.583,135.469,56.345,135.904"/>
	<path clip-path="url(#SVGID_2_)" fill="#484544" d="M68.946,142.241c0,1.344-0.708,2.888-1.706,3.777
		c-0.927,0.816-2.324,1.325-3.704,1.325c-0.944,0-1.834-0.236-2.415-0.672c-0.745-0.526-1.235-1.489-1.235-2.396
		c0-1.616,1.035-3.432,2.469-4.358c0.854-0.526,1.925-0.835,3.032-0.835C67.475,139.082,68.946,140.39,68.946,142.241
		 M63.699,141.315c-0.69,1.253-1.198,3.032-1.198,4.14c0,0.727,0.417,1.235,1.016,1.235c0.799,0,1.308-0.545,1.961-2.07
		c0.563-1.308,0.945-2.796,0.945-3.74c0-0.69-0.382-1.09-1.017-1.09C64.843,139.79,64.262,140.299,63.699,141.315"/>
	<path clip-path="url(#SVGID_2_)" fill="#484544" d="M80.476,135.323c-0.146,0-0.182-0.036-0.182-0.127
		c0-0.127,0.072-0.345,0.146-0.418c0.054-0.055,0.127-0.072,0.634-0.072c1.253-0.019,1.908-0.072,3.215-0.272
		c0.218-0.036,0.309-0.055,0.362-0.055c0.074,0,0.11,0.036,0.11,0.109c0,0.218-0.345,1.217-0.962,2.705
		c-0.31,0.781-0.618,1.58-0.908,2.396c-0.708,1.835-1.399,3.614-1.743,4.521c-0.473,1.162-0.6,1.562-0.6,1.853
		c0,0.2,0.164,0.363,0.363,0.363c0.454,0,1.217-0.636,1.707-1.435c0.073-0.109,0.146-0.163,0.182-0.163
		c0.145,0,0.435,0.254,0.435,0.363c0,0.199-0.817,1.125-1.361,1.507c-0.672,0.508-1.38,0.744-2.142,0.744
		c-1.072,0-1.544-0.472-1.635-1.616c-1.235,1.289-1.78,1.599-2.779,1.599c-1.506,0-2.451-0.999-2.451-2.597
		c0-2.905,2.742-5.666,5.629-5.666c0.727,0,1.236,0.236,1.671,0.763c0.454-1.126,0.907-2.288,1.361-3.468
		c0.255-0.672,0.291-0.799,0.291-0.872c0-0.091-0.127-0.145-0.418-0.145h-0.435L80.476,135.323z M79.712,140.444
		c-0.182-0.438-0.49-0.672-0.89-0.672c-0.599,0-1.18,0.472-1.798,1.452c-0.798,1.271-1.452,3.142-1.452,4.122
		c0,0.581,0.218,0.926,0.599,0.926c0.6,0,1.453-0.835,2.179-2.161c0.399-0.726,0.853-1.834,1.434-3.504L79.712,140.444z"/>
	<path clip-path="url(#SVGID_2_)" fill="#484544" d="M86.576,145.364c0,0.836,0.345,1.253,1.035,1.253
		c0.942,0,2.052-0.672,2.74-1.688c0.092-0.127,0.164-0.182,0.219-0.182c0.146,0,0.382,0.2,0.382,0.309
		c0,0.236-0.601,0.944-1.198,1.417c-0.763,0.599-1.635,0.89-2.706,0.89c-1.871,0-3.051-1.054-3.051-2.706
		c0-1.416,0.672-2.814,1.888-3.903c1.217-1.126,2.562-1.707,3.905-1.707c1.38,0,2.269,0.653,2.269,1.67
		c0,0.781-0.599,1.508-1.615,1.979c-0.689,0.309-1.472,0.454-2.578,0.454c-0.273,0-0.418,0-0.708-0.036
		C86.758,144.021,86.576,144.692,86.576,145.364 M87.738,142.478c0.726,0,1.325-0.236,1.797-0.708
		c0.436-0.418,0.726-1.017,0.726-1.453c0-0.345-0.217-0.599-0.525-0.599c-0.672,0-1.508,0.962-2.324,2.741
		C87.556,142.478,87.665,142.478,87.738,142.478"/>
	<path clip-path="url(#SVGID_2_)" fill="#484544" d="M99.722,140.426c1.198-1.036,1.834-1.344,2.851-1.344
		c1.398,0,2.233,0.871,2.233,2.343c0,1.543-0.799,3.286-2.071,4.484c-0.962,0.908-2.196,1.417-3.431,1.417
		c-0.763,0-1.235-0.182-1.815-0.654c-0.182,0.545-0.327,0.925-0.51,1.416c-0.2,0.509-0.381,1.035-0.562,1.544
		c-0.2,0.672-0.382,1.162-0.509,1.38c-0.036,0.036-0.056,0.072-0.056,0.091c0,0.109,0.164,0.182,0.382,0.182
		c0.163,0,0.744,0,0.8-0.02h0.145c0.109,0,0.164,0.056,0.164,0.165c0,0.309-0.127,0.49-0.327,0.49c-0.272,0-0.328,0-1.798-0.073
		c-0.945-0.036-1.072-0.036-1.452-0.036c-0.364,0-1.889,0.055-2.106,0.073h-0.092c-0.071,0-0.127-0.037-0.127-0.091
		c0-0.346,0.163-0.563,0.4-0.581l0.327-0.019l0.398-0.019c0.544-0.018,0.6-0.054,0.744-0.472c0.127-0.363,0.273-0.727,0.418-1.09
		c0.381-1.017,0.927-2.434,1.599-4.23c0.107-0.29,0.854-2.161,1.253-3.178c0.107-0.236,0.198-0.49,0.309-0.763
		c0.09-0.272,0.054-0.146,0.127-0.399c0.09-0.218,0.182-0.472,0.272-0.744c0.036-0.055,0.055-0.109,0.055-0.164
		c0-0.108-0.11-0.182-0.255-0.182l-0.998,0.037c-0.11,0-0.164-0.037-0.164-0.109c0-0.381,0.091-0.472,0.472-0.491
		c0.764-0.035,2.779-0.217,3.033-0.289c0.2-0.037,0.363-0.055,0.49-0.055c0.091,0,0.145,0.055,0.145,0.146s-0.018,0.163-0.09,0.399
		l-0.109,0.326l-0.092,0.309L99.722,140.426z M99.122,142.368c-0.562,1.054-1.217,2.852-1.217,3.323c0,0.509,0.453,0.89,1.054,0.89
		c0.871,0,1.706-0.817,2.486-2.47c0.546-1.162,0.891-2.396,0.891-3.214c0-0.581-0.254-0.89-0.708-0.89
		C100.884,140.008,99.849,140.988,99.122,142.368"/>
	<path clip-path="url(#SVGID_2_)" fill="#484544" d="M108.327,145.364c0,0.836,0.345,1.253,1.035,1.253
		c0.942,0,2.052-0.672,2.74-1.688c0.092-0.127,0.164-0.182,0.219-0.182c0.146,0,0.382,0.2,0.382,0.309
		c0,0.236-0.601,0.944-1.198,1.417c-0.763,0.599-1.635,0.89-2.706,0.89c-1.871,0-3.051-1.054-3.051-2.706
		c0-1.416,0.672-2.814,1.888-3.903c1.217-1.126,2.562-1.707,3.905-1.707c1.38,0,2.269,0.653,2.269,1.67
		c0,0.781-0.599,1.508-1.615,1.979c-0.689,0.309-1.472,0.454-2.578,0.454c-0.273,0-0.418,0-0.708-0.036
		C108.509,144.021,108.327,144.692,108.327,145.364 M109.489,142.478c0.726,0,1.325-0.236,1.797-0.708
		c0.436-0.418,0.726-1.017,0.726-1.453c0-0.345-0.217-0.599-0.525-0.599c-0.672,0-1.508,0.962-2.324,2.741
		C109.307,142.478,109.416,142.478,109.489,142.478"/>
	<path clip-path="url(#SVGID_2_)" fill="#484544" d="M115.698,144.893c0,0.363-0.254,0.636-0.581,0.636c-0.09,0-0.127,0-0.218-0.036
		c-0.018-0.019-0.036-0.019-0.055-0.019c-0.054,0-0.09,0.055-0.09,0.146c0,0.581,0.689,1.089,1.452,1.089
		c0.781,0,1.489-0.617,1.489-1.289c0-0.507-0.2-0.871-1.055-1.889c-0.652-0.78-0.925-1.397-0.925-2.033
		c0-1.435,1.489-2.434,3.613-2.434c1.307,0,2.142,0.545,2.142,1.417c0,0.6-0.362,0.998-0.925,0.998
		c-0.418,0-0.708-0.254-0.708-0.617c0-0.218,0.146-0.399,0.363-0.472c0.072-0.018,0.091-0.055,0.091-0.109
		c0-0.29-0.418-0.545-0.89-0.545c-0.69,0-1.253,0.473-1.253,1.071c0,0.382,0.145,0.654,0.652,1.162
		c1.018,1.054,1.38,1.707,1.38,2.506c0,1.707-1.561,2.905-3.795,2.905c-1.597,0-2.813-0.89-2.813-2.033
		c0-0.745,0.525-1.308,1.253-1.308C115.317,144.039,115.698,144.402,115.698,144.893"/>
	<path clip-path="url(#SVGID_2_)" fill="#484544" d="M123.36,144.893c0,0.363-0.254,0.636-0.581,0.636c-0.09,0-0.127,0-0.218-0.036
		c-0.018-0.019-0.036-0.019-0.055-0.019c-0.054,0-0.09,0.055-0.09,0.146c0,0.581,0.689,1.089,1.452,1.089
		c0.781,0,1.489-0.617,1.489-1.289c0-0.507-0.2-0.871-1.055-1.889c-0.652-0.78-0.925-1.397-0.925-2.033
		c0-1.435,1.489-2.434,3.613-2.434c1.307,0,2.142,0.545,2.142,1.417c0,0.6-0.362,0.998-0.925,0.998
		c-0.418,0-0.708-0.254-0.708-0.617c0-0.218,0.146-0.399,0.363-0.472c0.072-0.018,0.091-0.055,0.091-0.109
		c0-0.29-0.418-0.545-0.89-0.545c-0.69,0-1.253,0.473-1.253,1.071c0,0.382,0.145,0.654,0.652,1.162
		c1.018,1.054,1.38,1.707,1.38,2.506c0,1.707-1.561,2.905-3.795,2.905c-1.597,0-2.813-0.89-2.813-2.033
		c0-0.745,0.525-1.308,1.253-1.308C122.979,144.039,123.36,144.402,123.36,144.893"/>
	<path clip-path="url(#SVGID_2_)" fill="#484544" d="M138.576,142.241c0,1.344-0.708,2.888-1.706,3.777
		c-0.928,0.816-2.324,1.325-3.704,1.325c-0.944,0-1.834-0.236-2.415-0.672c-0.745-0.526-1.235-1.489-1.235-2.396
		c0-1.616,1.035-3.432,2.469-4.358c0.854-0.526,1.926-0.835,3.032-0.835C137.104,139.082,138.576,140.39,138.576,142.241
		 M133.329,141.315c-0.69,1.253-1.198,3.032-1.198,4.14c0,0.727,0.417,1.235,1.016,1.235c0.799,0,1.309-0.545,1.961-2.07
		c0.563-1.308,0.945-2.796,0.945-3.74c0-0.69-0.382-1.09-1.017-1.09C134.473,139.79,133.891,140.299,133.329,141.315"/>
	<path clip-path="url(#SVGID_2_)" fill="#484544" d="M148.889,141.969c-0.181,0.509-0.382,0.98-0.599,1.471
		c-0.745,1.78-0.835,2.034-0.835,2.397c0,0.199,0.163,0.363,0.363,0.363c0.454,0,1.035-0.49,1.651-1.38
		c0.056-0.073,0.109-0.128,0.146-0.128c0.091,0,0.417,0.31,0.417,0.4c0,0.218-0.854,1.107-1.399,1.471
		c-0.779,0.526-1.597,0.799-2.359,0.799c-0.891,0-1.345-0.399-1.345-1.217c0-0.146,0-0.218,0.037-0.436
		c-0.926,1.089-1.834,1.616-2.813,1.616c-1.508,0-2.415-0.944-2.415-2.506c0-2.706,3.104-5.757,5.864-5.757
		c0.672,0,1.054,0.182,1.579,0.763l0.092-0.145l0.055-0.146c0.163-0.344,0.217-0.399,0.399-0.399c0.055,0,0.055,0,0.689,0.018h0.308
		l0.837-0.036c0.091-0.018,0.162-0.018,0.218-0.018c0.127,0,0.182,0.054,0.182,0.145c0,0.127-0.037,0.255-0.091,0.399
		c-0.2,0.454-0.4,0.908-0.6,1.381L148.889,141.969z M145.857,139.754c-0.728,0-1.436,0.708-2.233,2.215
		c-0.672,1.29-1.163,2.724-1.163,3.45c0,0.49,0.218,0.817,0.527,0.817c1.18,0,2.76-2.396,3.685-5.574
		C146.583,139.99,146.365,139.754,145.857,139.754"/>
	<path clip-path="url(#SVGID_2_)" fill="#484544" d="M152.229,144.893c0,0.363-0.254,0.636-0.581,0.636
		c-0.091,0-0.127,0-0.219-0.036c-0.017-0.019-0.035-0.019-0.054-0.019c-0.054,0-0.09,0.055-0.09,0.146
		c0,0.581,0.689,1.089,1.452,1.089c0.781,0,1.489-0.617,1.489-1.289c0-0.507-0.2-0.871-1.055-1.889
		c-0.652-0.78-0.925-1.397-0.925-2.033c0-1.435,1.489-2.434,3.613-2.434c1.307,0,2.142,0.545,2.142,1.417
		c0,0.6-0.362,0.998-0.925,0.998c-0.418,0-0.708-0.254-0.708-0.617c0-0.218,0.146-0.399,0.363-0.472
		c0.071-0.018,0.091-0.055,0.091-0.109c0-0.29-0.418-0.545-0.89-0.545c-0.69,0-1.253,0.473-1.253,1.071
		c0,0.382,0.145,0.654,0.652,1.162c1.018,1.054,1.38,1.707,1.38,2.506c0,1.707-1.561,2.905-3.795,2.905
		c-1.597,0-2.813-0.89-2.813-2.033c0-0.745,0.525-1.308,1.253-1.308C151.848,144.039,152.229,144.402,152.229,144.893"/>
</g>
</svg>
