<?xml version="1.0" encoding="utf-8"?>
<!-- Generator: Adobe Illustrator 16.0.0, SVG Export Plug-In . SVG Version: 6.00 Build 0)  -->
<!DOCTYPE svg PUBLIC "-//W3C//DTD SVG 1.1//EN" "http://www.w3.org/Graphics/SVG/1.1/DTD/svg11.dtd">
<svg version="1.1" id="Layer_1" xmlns="http://www.w3.org/2000/svg" xmlns:xlink="http://www.w3.org/1999/xlink" x="0px" y="0px" viewBox="0 0 46.625 42.175" enable-background="new 0 0 46.625 42.175" xml:space="preserve">
  <g>
  	<path d="M43.775,3.9c-3.801-3.8-10-3.8-13.801,0l-20.5,20.6c-2.3,2.3-2.3,6,0,8.3c2.3,2.3,6,2.3,8.3,0
  		l12.7-12.8c0.801-0.8,0.801-2,0-2.8c-0.8-0.8-2-0.8-2.8,0l-12.8,12.7c-0.7,0.7-1.9,0.7-2.6,0c-0.7-0.699-0.7-1.899,0-2.6l20.5-20.6
  		c2.199-2.2,5.899-2.2,8.1,0c2.2,2.2,2.2,5.9,0,8.1l-20.5,20.6c-3.8,3.801-9.9,3.801-13.6,0c-3.8-3.8-3.8-9.899,0-13.6l18.4-18.4
  		c0.8-0.8,0.8-2,0-2.8c-0.8-0.8-2-0.8-2.8,0l-18.4,18.3c-5.3,5.3-5.3,14,0,19.3c5.3,5.3,14,5.3,19.3,0l20.5-20.5
  		C47.575,13.9,47.575,7.7,43.775,3.9"/>
  </g>
</svg>
