<?xml version="1.0" encoding="utf-8"?>
<!-- Generator: Adobe Illustrator 20.1.0, SVG Export Plug-In . SVG Version: 6.00 Build 0)  -->
<svg version="1.1" id="Camada_1" xmlns="http://www.w3.org/2000/svg" xmlns:xlink="http://www.w3.org/1999/xlink" x="0px" y="0px"
	 viewBox="0 0 146.107 146.107" style="enable-background:new 0 0 146.107 146.107;" xml:space="preserve">
<g>
	<path style="fill:#FFFFFF;" d="M73.054,0C32.71,0,0,32.71,0,73.054s32.71,73.054,73.054,73.054s73.054-32.71,73.054-73.054
		S113.397,0,73.054,0z"/>
	<path d="M73.054,10c34.768,0,63.054,28.286,63.054,63.054c0,34.768-28.286,63.054-63.054,63.054
		C38.286,136.107,10,107.821,10,73.054C10,38.286,38.286,10,73.054,10 M73.054,0C32.71,0,0,32.71,0,73.054
		s32.71,73.054,73.053,73.054c40.343,0,73.054-32.71,73.054-73.054S113.397,0,73.054,0L73.054,0z"/>
	<path d="M101.142,34.559c-1.759-1.774-4.413-1.774-6.187,0l-8.185,8.185l16.594,16.594l8.185-8.185
		c1.774-1.774,1.774-4.428,0-6.187L101.142,34.559z"/>
	<polygon points="33.232,96.282 33.232,112.875 49.826,112.875 98.727,63.974 82.133,47.38 	"/>
</g>
</svg>
