<?xml version="1.0" encoding="utf-8"?>
<!-- Generator: Adobe Illustrator 20.1.0, SVG Export Plug-In . SVG Version: 6.00 Build 0)  -->
<svg version="1.1" id="Layer_1" xmlns="http://www.w3.org/2000/svg" xmlns:xlink="http://www.w3.org/1999/xlink" x="0px" y="0px"
	 viewBox="0 0 147.027 85.771" style="enable-background:new 0 0 147.027 85.771;" xml:space="preserve">
<path d="M141.462,77.252c-0.694-2.334-1.634-4.562-2.797-6.651h4.203c-2.611-4.688-6.336-8.664-10.804-11.602
	c8.776-5.762,14.652-15.58,14.963-26.791h-2.801C143.731,14.336,129.1,0,111.109,0S78.486,14.336,77.992,32.208h2.8
	c0.31,11.21,6.186,21.028,14.964,26.792c-4.468,2.937-8.193,6.913-10.804,11.601h-4.203c-1.163,2.089-2.104,4.317-2.797,6.651h4.202
	c-0.805,2.712-1.28,5.565-1.362,8.519h11.227c0.128-3.043,0.886-5.918,2.128-8.519h-4.204c1.206-2.522,2.877-4.773,4.904-6.651
	h4.204c3.904-3.614,9.115-5.835,14.859-5.835c5.743,0,10.954,2.221,14.859,5.835h-4.204c2.028,1.878,3.699,4.129,4.904,6.651h4.204
	c1.241,2.601,1.999,5.476,2.128,8.519h11.226c-0.082-2.953-0.557-5.807-1.362-8.519H141.462z M89.218,32.208
	c0.493-11.68,10.09-21.005,21.892-21.005s21.398,9.325,21.892,21.005h2.801c-0.493,11.68-10.091,21.005-21.892,21.005
	c-11.802,0-21.399-9.325-21.892-21.005H89.218z"/>
<path d="M63.509,77.252c-0.694-2.334-1.634-4.562-2.797-6.651h4.203c-2.611-4.688-6.335-8.664-10.803-11.602
	c8.776-5.762,14.652-15.58,14.963-26.791h-2.801C65.779,14.336,51.147,0,33.158,0C15.166,0,0.536,14.336,0.039,32.208H2.84
	C3.15,43.418,9.026,53.236,17.804,59C13.336,61.937,9.611,65.913,7,70.601H2.797C1.634,72.69,0.693,74.918,0,77.252h4.203
	c-0.805,2.712-1.281,5.565-1.362,8.519h11.226c0.128-3.043,0.886-5.918,2.128-8.519h-4.204c1.206-2.522,2.877-4.773,4.904-6.651
	h4.204c3.904-3.614,9.115-5.835,14.859-5.835s10.956,2.221,14.86,5.835h-4.204c2.028,1.878,3.699,4.129,4.904,6.651h4.204
	c1.242,2.601,1.999,5.476,2.128,8.519h11.226c-0.082-2.953-0.557-5.807-1.363-8.519H63.509z M11.266,32.208
	c0.493-11.68,10.091-21.005,21.892-21.005s21.398,9.325,21.891,21.005h2.801c-0.493,11.68-10.091,21.005-21.892,21.005
	s-21.399-9.325-21.891-21.005H11.266z"/>
</svg>
